,Dechaulage_detect,Pickle_detect,Fin_Pickle_detect,Pretannage_Tannage_detect,Alerte_Duree_Dechaulage,Alerte_Duree_Pickle,Alerte_Duree_Fin_Pickle,Alerte_Duree_Pretannage_Tannage,Dechaulage_Ph_out,Dechaulage_Temp_out,Pickle_Ph_out,Pickle_Temp_out,Fin_Pickle_Ph_out,Fin_Pickle_Temp_out,Pretannage_Tannage_Ph_out,Pretannage_Tannage_Temp_out,Dechaulage_Ph_max_cons,Dechaulage_Temp_max_cons,Pickle_Ph_max_cons,Pickle_Temp_max_cons,Fin_Pickle_Ph_max_cons,Fin_Pickle_Temp_max_cons,Pretannage_Tannage_Ph_max_cons,Pretannage_Tannage_Temp_max_cons,NomLot,Formule,HeureDebut
0,True,True,True,True,False,False,False,False,49.24242424242424,78.78787878787878,94.07744874715262,94.76082004555809,24.545454545454547,0.0,20.93541202672606,22.048997772828507,224,224,413,416,43,0,282,297,19145,Inconnue,2019-03-25 05:33:53.000
0,True,True,True,True,False,False,False,False,71.73076923076923,89.8076923076923,0.0,100.0,3.8834951456310676,51.94174757281553,0.0,31.74491941135249,367,367,0,353,8,56,0,378,19919,Inconnue,2019-04-01 05:54:55.300
0,True,True,True,True,False,False,False,False,35.9375,88.28125,0.0,100.0,0.0,4.571428571428571,0.0,0.0,184,184,0,403,0,8,0,0,19925,Inconnue,2019-04-03 05:33:58.000
0,True,True,True,True,True,False,False,False,91.85185185185185,0.0,0.0,0.0,0.0,0.0,0.0,0.0,279,279,0,0,0,0,0,0,19920,Inconnue,2019-04-04 07:26:36.900
0,True,True,True,True,False,False,False,False,54.141414141414145,0.40404040404040403,0.0,0.0,0.0,0.0,0.0,0.0,252,252,0,0,0,0,0,0,19917,Inconnue,2019-04-05 05:36:47.600
0,True,True,True,True,False,False,True,True,31.858407079646017,0.6637168141592921,0.26041666666666663,0.0,25.517241379310345,40.0,0.0,32.33756534727409,109,109,1,0,74,113,0,433,19152,Inconnue,2019-04-08 05:38:56.100
0,True,True,True,True,False,False,False,False,0.0,1.8018018018018018,0.0,0.0,0.0,0.0,3.5987748851454824,0.0,0,0,0,0,0,0,37,0,19999,T021,2019-06-12 05:30:46.120
0,True,True,True,True,False,False,True,True,0.0,0.7648183556405354,0.0,0.0,0.0,0.0,0.0,0.0,0,0,0,0,0,0,0,0,19514,T021,2019-06-19 05:39:16.020
0,True,True,True,True,True,False,False,False,0.0,3.3707865168539324,0.0,0.0,0.0,0.0,0.0,0.0,0,0,0,0,0,0,0,0,19218,T021,2019-06-27 08:47:59.750
0,True,True,True,True,False,False,False,False,0.0,45.18388791593696,0.0,0.0,0.0,34.5360824742268,0.0,83.9421088904204,0,0,0,0,0,34,0,1196,19506,T021,2019-06-28 05:30:37.050
0,True,True,True,True,False,False,False,False,100.0,0.0,0.0,0.0,0.0,0.0,0.0,0.0,531,531,0,0,0,0,0,0,19210,T021,2019-07-01 05:38:12.250
0,True,True,True,True,False,False,False,False,100.0,26.820603907637658,0.0,98.72611464968153,0.0,3.061224489795918,0.0,0.0,563,563,0,465,0,6,0,0,19522,T021,2019-07-02 05:35:13.250
0,True,True,True,True,False,False,False,False,48.832271762208066,27.81316348195329,0.0,0.0,0.0,0.0,1.187980433263452,0.3494060097833683,230,230,0,0,0,0,17,5,19519,T027,2019-07-03 07:04:47.350
0,True,True,True,True,False,False,True,True,0.0,0.0,0.0,0.0,0.0,0.0,0.0,0.0,0,0,0,0,0,0,0,0,19521,T021,2019-07-04 05:31:38.450
0,True,True,True,True,False,False,False,False,0.0,0.8097165991902834,0.0,0.0,0.0,0.0,0.0,0.0,0,0,0,0,0,0,0,0,19224,T027,2019-07-05 07:03:12.850
0,True,True,True,True,False,False,False,False,0.0,70.52238805970148,0.0,0.0,0.0,0.0,0.0,0.0,0,0,0,0,0,0,0,0,19219,T021,2019-07-08 05:30:28.950
0,True,True,True,True,False,False,True,True,0.0,1.5350877192982455,0.0,0.0,0.0,0.0,0.0,0.0,0,0,0,0,0,0,0,0,19226,T027,2019-07-09 06:58:22.350
0,True,True,True,True,False,False,False,False,0.0,0.0,0.0,0.0,0.0,0.0,0.0,0.0,0,0,0,0,0,0,0,0,19527,T021,2019-07-10 05:53:07.750
0,True,True,True,True,False,False,False,False,0.0,0.6864988558352403,0.0,0.0,0.0,0.0,0.591715976331361,0.0,0,0,0,0,0,0,8,0,19229,T027,2019-07-11 07:00:16.350
0,True,True,True,True,True,False,True,True,1.875,13.28125,0.0,0.0,0.0,0.0,0.0,0.0,11,11,0,0,0,0,0,0,19532,T021,2019-07-15 05:24:12.150
0,True,True,True,True,False,False,False,False,0.0,0.0,0.0,0.0,0.0,0.0,0.0,0.0,0,0,0,0,0,0,0,0,19531,T021,2019-07-16 05:33:57.650
0,True,True,True,True,False,False,False,False,0.0,0.186219739292365,0.0,0.0,4.5662100456621,0.0,0.0,0.0,0,0,0,0,10,0,0,0,19534,T021,2019-07-17 05:32:37.750
0,True,True,True,True,False,False,True,True,2.119460500963391,0.0,0.0,0.0,20.96069868995633,0.0,0.0,0.0,11,11,0,0,42,0,0,0,19561,T021,2019-09-17 05:34:51.340
0,True,True,True,True,False,False,False,False,0.0,0.0,0.0,0.0,0.0,0.0,0.0,0.0,0,0,0,0,0,0,0,0,19565,T021,2019-09-18 05:36:07.340
0,True,True,True,True,False,False,False,False,4.587155963302752,0.0,0.0,0.0,0.0,0.0,0.0,0.0,25,25,0,0,0,0,0,0,19560,T021,2019-09-19 05:31:52.040
0,True,True,True,True,False,True,False,False,32.161687170474515,0.0,0.0,0.0,0.0,0.0,0.0,0.0,104,104,0,0,0,0,0,0,19563,T021,2019-09-24 05:30:15.140
0,True,True,True,True,False,False,False,False,34.47653429602888,0.0,2.7613412228796843,0.0,0.0,0.0,0.0,0.0,130,130,13,0,0,0,0,0,19573,T021,2019-09-25 05:34:53.440
0,True,True,True,True,False,False,False,False,0.0,0.0,0.0,0.0,0.0,0.0,0.0,0.0,0,0,0,0,0,0,0,0,19567,T021,2019-09-27 05:41:49.540
0,True,True,True,True,False,False,False,False,0.0,0.1893939393939394,0.0,0.0,0.0,0.0,0.0,0.0,0,0,0,0,0,0,0,0,19569,T021,2019-09-30 05:32:47.240
0,True,True,True,True,False,False,False,False,0.0,0.0,0.0,0.0,0.0,0.0,0.0,0.0,0,0,0,0,0,0,0,0,19287,T021,2019-10-01 05:34:03.840
0,True,True,True,True,True,False,False,False,0.0,0.0,0.0,0.0,0.0,0.0,16.21200311769291,19.40763834762276,0,0,0,0,0,0,175,249,19578,T027,2019-10-02 10:56:34.440
0,True,True,True,True,False,False,False,False,0.0,0.0,0.0,0.0,0.0,0.0,0.0,0.0,0,0,0,0,0,0,0,0,19582,T021,2019-10-03 05:39:02.040
0,True,True,True,True,False,False,False,False,0.0,0.0,0.26109660574412535,0.0,0.0,0.0,0.0,0.0,0,0,1,0,0,0,0,0,19575,T027,2019-10-10 07:06:46.040
0,True,True,True,True,False,False,False,False,0.0,2.828618968386023,52.98329355608592,0.0,0.0,0.0,0.0,0.0,0,0,222,0,0,0,0,0,19299,T021,2019-10-11 05:45:58.140
0,True,True,True,True,False,False,False,False,31.297709923664126,0.0,76.67560321715817,0.0,54.08163265306123,0.0,6.854256854256854,0.0,122,122,286,0,106,0,95,0,19300,T021,2019-10-14 06:20:29.940
0,True,True,True,True,False,False,False,False,0.0,0.0,97.19222462203024,0.0,89.13043478260869,0.0,0.36603221083455345,0.0,0,0,450,0,90,0,5,0,19289,T021,2019-10-15 05:32:11.540
0,True,True,True,True,False,False,False,False,0.0,0.0,9.387755102040817,0.0,0.0,0.0,46.25302175664787,0.0,0,0,43,0,0,0,552,0,19301,T021,2019-10-17 05:38:11.340
0,True,True,True,True,False,False,False,False,65.34296028880865,0.9025270758122743,96.05568445475639,0.0,100.0,0.0,100.0,0.0,267,267,414,0,203,0,1379,0,19291,T021,2019-10-18 05:41:48.140
0,True,True,True,True,False,False,False,False,0.0,0.1841620626151013,0.0,0.0,0.0,0.0,0.0,0.0,0,0,0,0,0,0,0,0,19594,T021,2019-10-21 05:44:33.440
0,True,True,True,True,False,False,False,False,0.0,0.0,0.0,0.0,0.0,0.0,0.0,0.0,0,0,0,0,0,0,0,0,19292,T021,2019-10-22 05:32:15.540
0,True,True,True,True,False,False,False,False,0.0,0.16051364365971107,96.17834394904459,0.0,100.0,0.0,100.0,0.0,0,0,453,0,168,0,1238,0,19296,T021,2019-10-23 05:38:01.640
0,True,True,True,True,True,False,False,False,0.0,0.7712082262210797,0.0,0.0,0.0,0.0,0.0,0.0,0,0,0,0,0,0,0,0,20702,T038,2020-02-21 06:41:48.287
0,True,True,True,True,False,False,False,False,0.17921146953405018,47.8494623655914,0.0,0.0,0.0,0.0,0.0,0.0,1,1,0,0,0,0,0,0,20419,T038,2020-03-03 05:36:43.187
0,True,True,True,True,False,False,False,False,99.2156862745098,4.117647058823529,0.0,0.0,0.0,0.0,0.0,0.0,506,506,0,0,0,0,0,0,20690,T038,2020-03-04 05:39:34.787
0,True,True,True,True,False,False,False,False,0.0,1.4571948998178506,0.0,0.0,0.0,0.0,0.0,0.0,0,0,0,0,0,0,0,0,20718,T038,2020-03-05 05:27:24.587
0,True,True,True,True,False,False,False,False,0.0,0.19685039370078738,0.0,0.0,0.0,0.0,0.0,0.0,0,0,0,0,0,0,0,0,20421,T038,2020-03-06 05:43:42.287
0,True,True,True,True,False,False,False,False,3.4482758620689653,0.19157088122605362,0.0,0.0,0.0,0.0,0.0,0.0,12,12,0,0,0,0,0,0,20697,T038,2020-03-09 05:35:34.987
0,True,True,True,True,False,False,False,False,0.18148820326678766,0.7259528130671506,0.0,0.0,0.0,0.0,0.0,0.0,1,1,0,0,0,0,0,0,20645,Inconnue,2020-03-10 05:24:00.087
0,True,True,True,True,False,False,False,False,0.0,0.3683241252302026,0.0,0.0,0.0,0.0,0.0,0.0,0,0,0,0,0,0,0,0,20441,T038,2020-03-11 05:28:56.187
0,True,True,True,True,False,False,False,False,0.0,0.19047619047619047,0.0,0.0,0.0,0.0,0.0,0.0,0,0,0,0,0,0,0,0,20722,T038,2020-03-13 05:33:10.090
0,True,True,True,True,False,False,False,False,0.0,0.18975332068311196,0.0,0.0,0.0,0.0,0.0,0.0,0,0,0,0,0,0,0,0,20445,T038,2020-03-16 05:45:33.087
0,True,True,True,True,False,False,False,False,0.0,0.0,0.0,0.0,0.0,0.0,0.0,0.0,0,0,0,0,0,0,0,0,20452,T038,2020-03-17 06:15:59.987
